{
  "images" : [
    {
      "filename" : "mcdonalds_logo_PNG5.png",
      "idiom" : "universal",
      "scale" : "1x"
    },
    {
      "filename" : "mcdonalds_logo_PNG5@2x.png",
      "idiom" : "universal",
      "scale" : "2x"
    },
    {
      "filename" : "mcdonalds_logo_PNG5@3x.png",
      "idiom" : "universal",
      "scale" : "3x"
    }
  ],
  "info" : {
    "author" : "xcode",
    "version" : 1
  }
}
